hw9
…
bike_data <- read_csv("https://www4.stat.ncsu.edu/~online/datasets/SeoulBikeData.csv", local = locale(encoding = "latin1"))

Rows: 8760 Columns: 14
── Column specification ────────────────────────────────────────────────────────
Delimiter: ","
chr  (4): Date, Seasons, Holiday, Functioning Day
dbl (10): Rented Bike Count, Hour, Temperature(°C), Humidity(%), Wind speed ...

ℹ Use `spec()` to retrieve the full column specification for this data.
ℹ Specify the column types or set `show_col_types = FALSE` to quiet this message.

bike_data

# A tibble: 8,760 × 14
   Date       `Rented Bike Count`  Hour `Temperature(°C)` `Humidity(%)`
   <chr>                    <dbl> <dbl>             <dbl>         <dbl>
 1 01/12/2017                 254     0              -5.2            37
 2 01/12/2017                 204     1              -5.5            38
 3 01/12/2017                 173     2              -6              39
 4 01/12/2017                 107     3              -6.2            40
 5 01/12/2017                  78     4              -6              36
 6 01/12/2017                 100     5              -6.4            37
 7 01/12/2017                 181     6              -6.6            35
 8 01/12/2017                 460     7              -7.4            38
 9 01/12/2017                 930     8              -7.6            37
10 01/12/2017                 490     9              -6.5            27
# ℹ 8,750 more rows
# ℹ 9 more variables: `Wind speed (m/s)` <dbl>, `Visibility (10m)` <dbl>,
#   `Dew point temperature(°C)` <dbl>, `Solar Radiation (MJ/m2)` <dbl>,
#   `Rainfall(mm)` <dbl>, `Snowfall (cm)` <dbl>, Seasons <chr>, Holiday <chr>,
#   `Functioning Day` <chr>
…
# Convert the Date column into an actual date (if need be). Recall the lubridate package
bike_data <- bike_data |>
mutate(date = lubridate::dmy(Date)) |>
select(-Date)
bike_data

# A tibble: 8,760 × 14
   `Rented Bike Count`  Hour `Temperature(°C)` `Humidity(%)` `Wind speed (m/s)`
                 <dbl> <dbl>             <dbl>         <dbl>              <dbl>
 1                 254     0              -5.2            37                2.2
 2                 204     1              -5.5            38                0.8
 3                 173     2              -6              39                1  
 4                 107     3              -6.2            40                0.9
 5                  78     4              -6              36                2.3
 6                 100     5              -6.4            37                1.5
 7                 181     6              -6.6            35                1.3
 8                 460     7              -7.4            38                0.9
 9                 930     8              -7.6            37                1.1
10                 490     9              -6.5            27                0.5
# ℹ 8,750 more rows
# ℹ 9 more variables: `Visibility (10m)` <dbl>,
#   `Dew point temperature(°C)` <dbl>, `Solar Radiation (MJ/m2)` <dbl>,
#   `Rainfall(mm)` <dbl>, `Snowfall (cm)` <dbl>, Seasons <chr>, Holiday <chr>,
#   `Functioning Day` <chr>, date <date>
…
# Check the character columns
bike_data$Seasons |> unique()

[1] "Winter" "Spring" "Summer" "Autumn"

# Turn the character variables (Seasons, Holiday, and Functioning Day) into factors.
bike_data <- bike_data |>
mutate(seasons = factor(Seasons), holiday = factor(Holiday), fn_day = factor(`Functioning Day`)) |>
select(-Seasons, -Holiday, -`Functioning Day`)
bike_data

# A tibble: 8,760 × 14
   `Rented Bike Count`  Hour `Temperature(°C)` `Humidity(%)` `Wind speed (m/s)`
                 <dbl> <dbl>             <dbl>         <dbl>              <dbl>
 1                 254     0              -5.2            37                2.2
 2                 204     1              -5.5            38                0.8
 3                 173     2              -6              39                1  
 4                 107     3              -6.2            40                0.9
 5                  78     4              -6              36                2.3
 6                 100     5              -6.4            37                1.5
 7                 181     6              -6.6            35                1.3
 8                 460     7              -7.4            38                0.9
 9                 930     8              -7.6            37                1.1
10                 490     9              -6.5            27                0.5
# ℹ 8,750 more rows
# ℹ 9 more variables: `Visibility (10m)` <dbl>,
#   `Dew point temperature(°C)` <dbl>, `Solar Radiation (MJ/m2)` <dbl>,
#   `Rainfall(mm)` <dbl>, `Snowfall (cm)` <dbl>, date <date>, seasons <fct>,
#   holiday <fct>, fn_day <fct>
# Lastly, rename the all the variables to have easy to use names (I use lower snake case but whatever you’d like is fine
bike_data <- bike_data |>
rename('bike_count' = `Rented Bike Count`,
'hour' = "Hour",
"temp" = `Temperature(°C)`,
"wind_speed" = `Wind speed (m/s)`,
"humidity" = `Humidity(%)`,
"vis" = `Visibility (10m)`,
"dew_point_temp" = `Dew point temperature(°C)`,
"solar_radiation" = `Solar Radiation (MJ/m2)`,
"rainfall" = "Rainfall(mm)",
"snowfall" = `Snowfall (cm)`)
bike_data

# A tibble: 8,760 × 14
   bike_count  hour  temp humidity wind_speed   vis dew_point_temp
        <dbl> <dbl> <dbl>    <dbl>      <dbl> <dbl>          <dbl>
 1        254     0  -5.2       37        2.2  2000          -17.6
 2        204     1  -5.5       38        0.8  2000          -17.6
 3        173     2  -6         39        1    2000          -17.7
 4        107     3  -6.2       40        0.9  2000          -17.6
 5         78     4  -6         36        2.3  2000          -18.6
 6        100     5  -6.4       37        1.5  2000          -18.7
 7        181     6  -6.6       35        1.3  2000          -19.5
 8        460     7  -7.4       38        0.9  2000          -19.3
 9        930     8  -7.6       37        1.1  2000          -19.8
10        490     9  -6.5       27        0.5  1928          -22.4
# ℹ 8,750 more rows
# ℹ 7 more variables: solar_radiation <dbl>, rainfall <dbl>, snowfall <dbl>,
#   date <date>, seasons <fct>, holiday <fct>, fn_day <fct>

# fn_day variable implies they were out of commission sometimes. Let’s remove those observations and that variable
bike_data <- bike_data |>
filter(fn_day == "Yes") |>
select(-fn_day)
bike_data

# A tibble: 8,465 × 13
   bike_count  hour  temp humidity wind_speed   vis dew_point_temp
        <dbl> <dbl> <dbl>    <dbl>      <dbl> <dbl>          <dbl>
 1        254     0  -5.2       37        2.2  2000          -17.6
 2        204     1  -5.5       38        0.8  2000          -17.6
 3        173     2  -6         39        1    2000          -17.7
 4        107     3  -6.2       40        0.9  2000          -17.6
 5         78     4  -6         36        2.3  2000          -18.6
 6        100     5  -6.4       37        1.5  2000          -18.7
 7        181     6  -6.6       35        1.3  2000          -19.5
 8        460     7  -7.4       38        0.9  2000          -19.3
 9        930     8  -7.6       37        1.1  2000          -19.8
10        490     9  -6.5       27        0.5  1928          -22.4
# ℹ 8,455 more rows
# ℹ 6 more variables: solar_radiation <dbl>, rainfall <dbl>, snowfall <dbl>,
#   date <date>, seasons <fct>, holiday <fct>
…
`summarise()` has grouped output by 'date', 'seasons'. You can override using
the `.groups` argument.

bike_data

# A tibble: 353 × 12
   date       seasons holiday    bike_count    temp humidity wind_speed   vis
   <date>     <fct>   <fct>           <dbl>   <dbl>    <dbl>      <dbl> <dbl>
 1 2017-12-01 Winter  No Holiday       9539 -2.45       45.9      1.54  1871.
 2 2017-12-02 Winter  No Holiday       8523  1.32       62.0      1.71  1471.
 3 2017-12-03 Winter  No Holiday       7222  4.88       81.5      1.61   456.
 4 2017-12-04 Winter  No Holiday       8729 -0.304      52.5      3.45  1363.
 5 2017-12-05 Winter  No Holiday       8307 -4.46       36.4      1.11  1959.
 6 2017-12-06 Winter  No Holiday       6669  0.0458     70.8      0.696 1187.
 7 2017-12-07 Winter  No Holiday       8549  1.09       67.5      1.69   949.
 8 2017-12-08 Winter  No Holiday       8032 -3.82       41.8      1.85  1872.
 9 2017-12-09 Winter  No Holiday       7233 -0.846      46        1.08  1861.
10 2017-12-10 Winter  No Holiday       3453  1.19       69.7      2.00  1043.
# ℹ 343 more rows
# ℹ 4 more variables: dew_point_temp <dbl>, solar_radiation <dbl>,
#   rainfall <dbl>, snowfall <dbl>
…
# Display metrics. It shows rmse = 3999.44, rsq = 0.844
lasso_metrics

# A tibble: 2 × 4
  .metric .estimator .estimate .config             
  <chr>   <chr>          <dbl> <chr>               
1 rmse    standard    3999.    Preprocessor1_Model1
2 rsq     standard       0.844 Preprocessor1_Model1

# or display them all. However, LASSO does not seem to be a good fit.
rbind(
  lasso_tune |> collect_metrics() |> mutate(model = "LASSO")
)

# A tibble: 60 × 8
   penalty .metric .estimator     mean     n  std_err .config              model
     <dbl> <chr>   <chr>         <dbl> <int>    <dbl> <chr>                <chr>
 1 0.001   rmse    standard   4249.       10 147.     Preprocessor1_Model… LASSO
 2 0.001   rsq     standard      0.816    10   0.0118 Preprocessor1_Model… LASSO
 3 0.00137 rmse    standard   4249.       10 147.     Preprocessor1_Model… LASSO
 4 0.00137 rsq     standard      0.816    10   0.0118 Preprocessor1_Model… LASSO
 5 0.00189 rmse    standard   4249.       10 147.     Preprocessor1_Model… LASSO
 6 0.00189 rsq     standard      0.816    10   0.0118 Preprocessor1_Model… LASSO
 7 0.00259 rmse    standard   4249.       10 147.     Preprocessor1_Model… LASSO
 8 0.00259 rsq     standard      0.816    10   0.0118 Preprocessor1_Model… LASSO
 9 0.00356 rmse    standard   4249.       10 147.     Preprocessor1_Model… LASSO
10 0.00356 rsq     standard      0.816    10   0.0118 Preprocessor1_Model… LASSO
# ℹ 50 more rows
…
There were issues with some computations   A: x8

There were issues with some computations   A: x9

There were issues with some computations   A: x10
There were issues with some computations   A: x10

bagged_tree_metrics <- bagged_tree_tune |> 
  collect_metrics() |> 
  mutate(model = "Bagged Tree")

rbind(bagged_tree_metrics)

# A tibble: 250 × 10
   cost_complexity tree_depth min_n .metric .estimator     mean     n  std_err
             <dbl>      <int> <int> <chr>   <chr>         <dbl> <int>    <dbl>
 1         0.001            5     2 rmse    standard   3369.       10 220.    
 2         0.001            5     2 rsq     standard      0.885    10   0.0144
 3         0.00562          5     2 rmse    standard   3509.       10 173.    
 4         0.00562          5     2 rsq     standard      0.877    10   0.0145
 5         0.0316           5     2 rmse    standard   4278.       10 224.    
 6         0.0316           5     2 rsq     standard      0.812    10   0.0272
 7         0.178            5     2 rmse    standard   5773.       10 445.    
 8         0.178            5     2 rsq     standard      0.661    10   0.0515
 9         1                5     2 rmse    standard   9878.       10 151.    
10         1                5     2 rsq     standard    NaN         0  NA     
# ℹ 240 more rows
# ℹ 2 more variables: .config <chr>, model <chr>
…
Warning: package 'randomForest' was built under R version 4.3.3

rf_metrics <- rf_tune |> 
  collect_metrics() |> 
  mutate(model = "Random Forest")

rbind(rf_metrics)

# A tibble: 250 × 10
    mtry trees min_n .metric .estimator     mean     n   std_err .config   model
   <int> <int> <int> <chr>   <chr>         <dbl> <int>     <dbl> <chr>     <chr>
 1     2    50     5 rmse    standard   3453.       10 179.      Preproce… Rand…
 2     2    50     5 rsq     standard      0.891    10   0.00907 Preproce… Rand…
 3     4    50     5 rmse    standard   3167.       10 160.      Preproce… Rand…
 4     4    50     5 rsq     standard      0.903    10   0.00921 Preproce… Rand…
 5     6    50     5 rmse    standard   3087.       10 185.      Preproce… Rand…
 6     6    50     5 rsq     standard      0.907    10   0.0119  Preproce… Rand…
 7     8    50     5 rmse    standard   3054.       10 205.      Preproce… Rand…
 8     8    50     5 rsq     standard      0.907    10   0.0131  Preproce… Rand…
 9    11    50     5 rmse    standard   3094.       10 199.      Preproce… Rand…
10    11    50     5 rsq     standard      0.905    10   0.0121  Preproce… Rand…
# ℹ 240 more rows
…
